<?xml version="1.0" encoding="UTF-8"?>
<!DOCTYPE svg PUBLIC "-//W3C//DTD SVG 1.1//EN" "http://www.w3.org/Graphics/SVG/1.1/DTD/svg11.dtd">
<!-- Creator: CorelDRAW 2019 (64-Bit) -->
<svg xmlns="http://www.w3.org/2000/svg" xml:space="preserve" width="1128.89mm" height="635mm" version="1.1" style="shape-rendering:geometricPrecision; text-rendering:geometricPrecision; image-rendering:optimizeQuality; fill-rule:evenodd; clip-rule:evenodd"
viewBox="0 0 112888.88 63500"
 xmlns:xlink="http://www.w3.org/1999/xlink">
 <defs>
  <filter id="eV4T1exPSJv10-filter" x="-150%" width="400%" y="-150%" height="400%">
    <feColorMatrix id="eV4T1exPSJv10-filter-saturate-0" type="saturate" values="1.2" result="result"/>
  </filter>
  <style type="text/css">
   <![CDATA[
    .str0 {stroke:#150026;stroke-width:300;stroke-miterlimit:22.9256}
    .str1 {stroke:#150026;stroke-width:300;stroke-linecap:round;stroke-linejoin:round;stroke-miterlimit:22.9256}
    .fil1 {fill:none}
    .fil0 {fill:none;fill-rule:nonzero}
   ]]>
  </style>
   <clipPath id="id0">
    <path d="M69449.32 37171.07c287.85,-190.17 579.74,-365.65 899.63,-501.44l0 0c295.95,-160.78 595.96,-306.88 923.96,-413.28l0 0c284.2,-141.73 576.51,-254.09 876.95,-337.05l0 0c31.62,-8.74 63.24,-17.47 79.06,-21.83l0 0c181.62,-81.79 367.31,-148.89 541.25,-196.93l0 0c158.12,-43.66 304.48,-68.26 450.85,-92.88l0 0c63.25,-17.46 122.43,-49.62 185.68,-67.08l0 0c268.81,-74.24 545.74,-119.09 810.9,-144.88l0 0c336.12,-77.01 680.33,-124.65 1016.86,-138.53l0 0c344.23,-47.62 676.7,-76.18 1021.35,-60.68l0 0c352.33,-18.25 692.92,-17.43 1029.86,31.83l0 0c340.59,0.81 689.29,31 1030.3,94.95l0 0c348.69,30.2 689.7,94.14 1018.94,177.16l0 0c356.81,59.57 701.87,138.21 1027.48,269.65l0 0c345.07,78.65 682.43,191.03 996.28,341.54l0 0c353.17,108.03 682.84,254.17 988.99,438.42l0 0c285.88,110.79 564.05,255.34 826.4,404.25l0 0c99.35,51.63 218.57,113.58 317.91,165.2l0 0c95.29,36.93 190.58,73.87 285.87,110.79l0 0c95.29,36.94 186.52,59.17 281.81,96.11l0 0c107.05,17.88 198.28,40.12 289.51,62.35l0 0c107.05,17.88 194.23,25.43 301.27,43.3l0 0c102.98,3.19 190.16,10.74 297.2,28.61l0 0c98.94,-11.51 201.92,-8.33 289.09,-0.77l0 0c98.94,-11.52 197.87,-23.03 296.79,-34.54l0 0c98.94,-11.5 197.86,-23.01 296.79,-34.52l0 0c94.88,-26.21 189.75,-52.4 268.81,-74.23l0 0c94.88,-26.21 189.74,-52.41 284.62,-78.62l0 0c90.81,-40.88 181.62,-81.78 272.44,-122.66l0 0c90.81,-40.89 181.64,-81.79 272.45,-122.68l0 0c70.94,-51.22 157.71,-106.8 248.52,-147.69l0 0c82.7,-70.28 153.65,-121.5 240.4,-177.09l0 0c66.89,-65.89 153.64,-121.48 236.35,-191.75l0 0c66.89,-65.92 133.77,-131.82 216.48,-202.1l0 0c62.82,-80.6 129.72,-146.5 192.54,-227.1l0 0c62.84,-80.61 125.67,-161.2 188.49,-241.8l0 0c58.79,-95.29 129.31,-209.65 188.09,-304.94l0 0c148.75,-262.45 297.5,-524.89 485.99,-766.69l0 0c184.03,-319.63 391.98,-614.24 623.85,-883.82l0 0c207.94,-294.61 439.82,-564.21 695.62,-808.78l0 0c212,-279.92 467.8,-524.5 743.46,-758.75l0 0c239.99,-240.21 499.85,-470.1 783.63,-674.96l0 0c259.85,-229.88 527.83,-430.38 835.54,-610.24l0 0c263.92,-215.18 555.81,-390.67 867.58,-555.82l0 0c287.84,-190.19 587.85,-336.29 907.73,-472.06l0 0c295.96,-160.8 615.83,-296.58 943.84,-402.96l0 0c240.81,-113.95 485.7,-213.2 754.5,-287.44l0 0c79.06,-21.83 146.36,-24.61 209.62,-42.07l0 0c138.25,-53.99 276.5,-107.99 418.81,-147.28l0 0c189.74,-52.41 383.55,-90.11 565.59,-108.76l0 0c31.63,-8.74 63.25,-17.48 94.88,-26.21l0 0c300.42,-82.97 608.97,-136.55 909.81,-156.39l0 0c351.93,-81.38 684.41,-109.94 1020.92,-123.82l0 0c344.24,-47.62 684.82,-46.81 1029.46,-31.3l0 0c336.53,-13.88 681.18,1.62 1018.12,50.87l0 0c360.45,11.15 693.34,45.7 1038.4,124.34l0 0c348.7,30.2 693.76,108.84 1027.07,206.54l0 0c340.99,63.95 690.11,157.28 1015.72,288.72l0 0c349.12,93.33 674.73,224.77 992.64,389.98l0 0c353.18,108.02 682.84,254.16 993.06,453.1l0 0c1294.73,559.54 2351.56,1674.95 2761.35,3158.8l0 0c710.02,2571.02 -801.04,5233.63 -3378.41,5945.41l0 0c-1344.02,371.17 -2699.91,144.76 -3805.32,-530.3l0 0c-95.29,-36.94 -194.64,-88.56 -289.94,-125.49l0 0c-95.28,-36.93 -190.57,-73.87 -285.86,-110.8l0 0c-91.24,-22.24 -186.52,-59.17 -277.76,-81.41l0 0c-107.04,-17.88 -198.27,-40.13 -289.5,-62.36l0 0c-107.04,-17.88 -210.03,-21.06 -301.27,-43.3l0 0c-102.99,-3.18 -205.97,-6.36 -293.14,-13.92l0 0c-98.94,11.52 -201.92,8.34 -300.85,19.84l0 0c-98.93,11.51 -197.87,23.02 -296.79,34.53l0 0c-98.93,11.51 -193.81,37.72 -276.92,44.86l0 0c-31.62,8.72 -63.25,17.46 -94.87,26.19l0 0c-63.25,17.47 -126.5,34.93 -189.75,52.4l0 0c-94.88,26.2 -185.69,67.1 -280.55,93.3l0 0c-90.83,40.89 -181.64,81.78 -276.51,107.98l0 0c-70.95,51.21 -161.76,92.11 -248.52,147.69l0 0c-86.76,55.59 -177.58,96.48 -248.52,147.69l0 0c-82.7,70.28 -169.46,125.86 -240.41,177.08l0 0c-82.7,70.27 -149.58,136.18 -236.33,191.77l0 0c-62.85,80.6 -129.73,146.5 -212.43,216.78l0 0c-62.84,80.61 -125.66,161.21 -192.55,227.1l0 0c-58.78,95.31 -105.8,171.54 -168.62,252.14l0 0c-78.23,148.09 -176.33,285.87 -258.61,419.28l0 0c-168.21,315.25 -360.35,605.5 -576.41,870.72l0 0c-184.01,319.62 -396.01,599.54 -647.76,858.82l0 0c-207.94,294.6 -439.82,564.19 -699.68,794.08l0 0c-231.87,269.58 -487.66,514.16 -751.57,729.35l0 0c-255.8,244.57 -519.72,459.77 -807.56,649.94l0 0c-259.86,229.89 -543.64,434.75 -855.41,599.92l0 0c-267.97,200.5 -559.88,375.98 -875.69,526.45l0 0c-291.9,175.48 -591.91,321.58 -915.85,442.67l0 0c-295.96,160.8 -615.84,296.57 -947.89,388.27l0 0c-213.26,90.51 -430.57,166.34 -667.75,231.85l0 0c-94.87,26.2 -205.56,56.76 -320.3,72.65l0 0c-90.81,40.88 -201.51,71.45 -312.18,102.02l0 0c-221.38,61.13 -446.8,107.57 -676.28,139.33l0 0c-332.05,91.7 -676.28,139.33 -1012.81,153.21l0 0c-340.17,62.31 -672.64,90.89 -1013.23,90.06l0 0c-348.28,32.94 -688.86,32.13 -1021.75,-2.44l0 0c-352.34,18.25 -701.05,-11.95 -1042.04,-75.89l0 0c-344.65,-15.51 -697.4,-60.4 -1026.66,-143.41l0 0c-352.75,-44.89 -697.81,-123.53 -1019.36,-240.28l0 0c-341,-63.94 -694.18,-171.97 -1008.03,-322.48l0 0c-349.12,-93.33 -690.53,-220.4 -996.69,-404.66l0 0c-337.37,-112.39 -651.22,-262.89 -941.56,-451.52l0 0c-139.09,-72.27 -293.98,-140.17 -437.12,-227.14l0 0c-95.29,-36.93 -190.58,-73.87 -274.12,-129.86l0 0c-91.24,-22.24 -202.33,-54.8 -297.62,-91.74l0 0c-91.24,-22.24 -182.47,-44.47 -277.76,-81.41l0 0c-102.99,-3.18 -194.22,-25.42 -301.26,-43.29l0 0c-102.99,-3.18 -190.16,-10.74 -297.2,-28.61l0 0c-102.99,-3.18 -186.12,3.96 -289.1,0.78l0 0c-102.98,-3.19 -201.91,8.33 -304.91,5.14l0 0c-94.86,26.2 -193.8,37.71 -276.91,44.85l0 0c-94.88,26.21 -193.81,37.72 -288.68,63.91l0 0c-63.25,17.47 -126.5,34.94 -205.56,56.77l0 0c-15.8,4.37 -47.44,13.1 -79.06,21.83l0 0c-90.82,40.9 -185.68,67.1 -276.5,107.99l0 0c-75,36.52 -165.81,77.42 -256.64,118.31l0 0c-90.81,40.89 -177.57,96.47 -268.38,137.37l0 0c-70.95,51.22 -157.71,106.79 -244.46,162.38l0 0c-66.9,65.91 -153.65,121.5 -236.35,191.76l0 0c-66.89,65.92 -133.78,131.83 -216.47,202.1l0 0c-66.9,65.91 -129.73,146.5 -212.43,216.78l0 0c-47.01,76.24 -109.85,156.84 -188.49,241.8l0 0c-47.02,76.24 -105.8,171.53 -168.63,252.13l0 0c-602.3,1146.67 -1649.83,2036.83 -2993.87,2408l0 0c-2577.37,711.78 -5240.69,-798 -5950.72,-3369.01l0 0c-409.8,-1483.86 -90.97,-2979.17 748.92,-4128.22l0 0c164.16,-329.95 372.1,-624.56 603.98,-894.16l0 0c188.07,-304.92 415.89,-589.21 667.63,-848.48l0 0c212,-279.92 463.75,-539.18 723.59,-769.06l0 0c235.94,-254.9 491.75,-499.48 775.53,-704.34l0 0c239.99,-240.21 523.76,-445.09 811.6,-635.25l0 0c141.9,-102.44 283.78,-204.88 409.87,-302.95l0 0c145.94,-87.74 307.7,-179.84 453.65,-267.59l0 0z"/>
   </clipPath>
    <clipPath id="id2">
     <path d="M69449.32 37171.07c287.85,-190.17 579.74,-365.65 899.63,-501.44l0 0c295.95,-160.78 595.96,-306.88 923.96,-413.28l0 0c284.2,-141.73 576.51,-254.09 876.95,-337.05l0 0c31.62,-8.74 63.24,-17.47 79.06,-21.83l0 0c181.62,-81.79 367.31,-148.89 541.25,-196.93l0 0c158.12,-43.66 304.48,-68.26 450.85,-92.88l0 0c63.25,-17.46 122.43,-49.62 185.68,-67.08l0 0c268.81,-74.24 545.74,-119.09 810.9,-144.88l0 0c336.12,-77.01 680.33,-124.65 1016.86,-138.53l0 0c344.23,-47.62 676.7,-76.18 1021.35,-60.68l0 0c352.33,-18.25 692.92,-17.43 1029.86,31.83l0 0c340.59,0.81 689.29,31 1030.3,94.95l0 0c348.69,30.2 689.7,94.14 1018.94,177.16l0 0c356.81,59.57 701.87,138.21 1027.48,269.65l0 0c345.07,78.65 682.43,191.03 996.28,341.54l0 0c353.17,108.03 682.84,254.17 988.99,438.42l0 0c285.88,110.79 564.05,255.34 826.4,404.25l0 0c99.35,51.63 218.57,113.58 317.91,165.2l0 0c95.29,36.93 190.58,73.87 285.87,110.79l0 0c95.29,36.94 186.52,59.17 281.81,96.11l0 0c107.05,17.88 198.28,40.12 289.51,62.35l0 0c107.05,17.88 194.23,25.43 301.27,43.3l0 0c102.98,3.19 190.16,10.74 297.2,28.61l0 0c98.94,-11.51 201.92,-8.33 289.09,-0.77l0 0c98.94,-11.52 197.87,-23.03 296.79,-34.54l0 0c98.94,-11.5 197.86,-23.01 296.79,-34.52l0 0c94.88,-26.21 189.75,-52.4 268.81,-74.23l0 0c94.88,-26.21 189.74,-52.41 284.62,-78.62l0 0c90.81,-40.88 181.62,-81.78 272.44,-122.66l0 0c90.81,-40.89 181.64,-81.79 272.45,-122.68l0 0c70.94,-51.22 157.71,-106.8 248.52,-147.69l0 0c82.7,-70.28 153.65,-121.5 240.4,-177.09l0 0c66.89,-65.89 153.64,-121.48 236.35,-191.75l0 0c66.89,-65.92 133.77,-131.82 216.48,-202.1l0 0c62.82,-80.6 129.72,-146.5 192.54,-227.1l0 0c62.84,-80.61 125.67,-161.2 188.49,-241.8l0 0c58.79,-95.29 129.31,-209.65 188.09,-304.94l0 0c148.75,-262.45 297.5,-524.89 485.99,-766.69l0 0c184.03,-319.63 391.98,-614.24 623.85,-883.82l0 0c207.94,-294.61 439.82,-564.21 695.62,-808.78l0 0c212,-279.92 467.8,-524.5 743.46,-758.75l0 0c239.99,-240.21 499.85,-470.1 783.63,-674.96l0 0c259.85,-229.88 527.83,-430.38 835.54,-610.24l0 0c263.92,-215.18 555.81,-390.67 867.58,-555.82l0 0c287.84,-190.19 587.85,-336.29 907.73,-472.06l0 0c295.96,-160.8 615.83,-296.58 943.84,-402.96l0 0c240.81,-113.95 485.7,-213.2 754.5,-287.44l0 0c79.06,-21.83 146.36,-24.61 209.62,-42.07l0 0c138.25,-53.99 276.5,-107.99 418.81,-147.28l0 0c189.74,-52.41 383.55,-90.11 565.59,-108.76l0 0c31.63,-8.74 63.25,-17.48 94.88,-26.21l0 0c300.42,-82.97 608.97,-136.55 909.81,-156.39l0 0c351.93,-81.38 684.41,-109.94 1020.92,-123.82l0 0c344.24,-47.62 684.82,-46.81 1029.46,-31.3l0 0c336.53,-13.88 681.18,1.62 1018.12,50.87l0 0c360.45,11.15 693.34,45.7 1038.4,124.34l0 0c348.7,30.2 693.76,108.84 1027.07,206.54l0 0c340.99,63.95 690.11,157.28 1015.72,288.72l0 0c349.12,93.33 674.73,224.77 992.64,389.98l0 0c353.18,108.02 682.84,254.16 993.06,453.1l0 0c1294.73,559.54 2351.56,1674.95 2761.35,3158.8l0 0c710.02,2571.02 -801.04,5233.63 -3378.41,5945.41l0 0c-1344.02,371.17 -2699.91,144.76 -3805.32,-530.3l0 0c-95.29,-36.94 -194.64,-88.56 -289.94,-125.49l0 0c-95.28,-36.93 -190.57,-73.87 -285.86,-110.8l0 0c-91.24,-22.24 -186.52,-59.17 -277.76,-81.41l0 0c-107.04,-17.88 -198.27,-40.13 -289.5,-62.36l0 0c-107.04,-17.88 -210.03,-21.06 -301.27,-43.3l0 0c-102.99,-3.18 -205.97,-6.36 -293.14,-13.92l0 0c-98.94,11.52 -201.92,8.34 -300.85,19.84l0 0c-98.93,11.51 -197.87,23.02 -296.79,34.53l0 0c-98.93,11.51 -193.81,37.72 -276.92,44.86l0 0c-31.62,8.72 -63.25,17.46 -94.87,26.19l0 0c-63.25,17.47 -126.5,34.93 -189.75,52.4l0 0c-94.88,26.2 -185.69,67.1 -280.55,93.3l0 0c-90.83,40.89 -181.64,81.78 -276.51,107.98l0 0c-70.95,51.21 -161.76,92.11 -248.52,147.69l0 0c-86.76,55.59 -177.58,96.48 -248.52,147.69l0 0c-82.7,70.28 -169.46,125.86 -240.41,177.08l0 0c-82.7,70.27 -149.58,136.18 -236.33,191.77l0 0c-62.85,80.6 -129.73,146.5 -212.43,216.78l0 0c-62.84,80.61 -125.66,161.21 -192.55,227.1l0 0c-58.78,95.31 -105.8,171.54 -168.62,252.14l0 0c-78.23,148.09 -176.33,285.87 -258.61,419.28l0 0c-168.21,315.25 -360.35,605.5 -576.41,870.72l0 0c-184.01,319.62 -396.01,599.54 -647.76,858.82l0 0c-207.94,294.6 -439.82,564.19 -699.68,794.08l0 0c-231.87,269.58 -487.66,514.16 -751.57,729.35l0 0c-255.8,244.57 -519.72,459.77 -807.56,649.94l0 0c-259.86,229.89 -543.64,434.75 -855.41,599.92l0 0c-267.97,200.5 -559.88,375.98 -875.69,526.45l0 0c-291.9,175.48 -591.91,321.58 -915.85,442.67l0 0c-295.96,160.8 -615.84,296.57 -947.89,388.27l0 0c-213.26,90.51 -430.57,166.34 -667.75,231.85l0 0c-94.87,26.2 -205.56,56.76 -320.3,72.65l0 0c-90.81,40.88 -201.51,71.45 -312.18,102.02l0 0c-221.38,61.13 -446.8,107.57 -676.28,139.33l0 0c-332.05,91.7 -676.28,139.33 -1012.81,153.21l0 0c-340.17,62.31 -672.64,90.89 -1013.23,90.06l0 0c-348.28,32.94 -688.86,32.13 -1021.75,-2.44l0 0c-352.34,18.25 -701.05,-11.95 -1042.04,-75.89l0 0c-344.65,-15.51 -697.4,-60.4 -1026.66,-143.41l0 0c-352.75,-44.89 -697.81,-123.53 -1019.36,-240.28l0 0c-341,-63.94 -694.18,-171.97 -1008.03,-322.48l0 0c-349.12,-93.33 -690.53,-220.4 -996.69,-404.66l0 0c-337.37,-112.39 -651.22,-262.89 -941.56,-451.52l0 0c-139.09,-72.27 -293.98,-140.17 -437.12,-227.14l0 0c-95.29,-36.93 -190.58,-73.87 -274.12,-129.86l0 0c-91.24,-22.24 -202.33,-54.8 -297.62,-91.74l0 0c-91.24,-22.24 -182.47,-44.47 -277.76,-81.41l0 0c-102.99,-3.18 -194.22,-25.42 -301.26,-43.29l0 0c-102.99,-3.18 -190.16,-10.74 -297.2,-28.61l0 0c-102.99,-3.18 -186.12,3.96 -289.1,0.78l0 0c-102.98,-3.19 -201.91,8.33 -304.91,5.14l0 0c-94.86,26.2 -193.8,37.71 -276.91,44.85l0 0c-94.88,26.21 -193.81,37.72 -288.68,63.91l0 0c-63.25,17.47 -126.5,34.94 -205.56,56.77l0 0c-15.8,4.37 -47.44,13.1 -79.06,21.83l0 0c-90.82,40.9 -185.68,67.1 -276.5,107.99l0 0c-75,36.52 -165.81,77.42 -256.64,118.31l0 0c-90.81,40.89 -177.57,96.47 -268.38,137.37l0 0c-70.95,51.22 -157.71,106.79 -244.46,162.38l0 0c-66.9,65.91 -153.65,121.5 -236.35,191.76l0 0c-66.89,65.92 -133.78,131.83 -216.47,202.1l0 0c-66.9,65.91 -129.73,146.5 -212.43,216.78l0 0c-47.01,76.24 -109.85,156.84 -188.49,241.8l0 0c-47.02,76.24 -105.8,171.53 -168.63,252.13l0 0c-602.3,1146.67 -1649.83,2036.83 -2993.87,2408l0 0c-2577.37,711.78 -5240.69,-798 -5950.72,-3369.01l0 0c-409.8,-1483.86 -90.97,-2979.17 748.92,-4128.22l0 0c164.16,-329.95 372.1,-624.56 603.98,-894.16l0 0c188.07,-304.92 415.89,-589.21 667.63,-848.48l0 0c212,-279.92 463.75,-539.18 723.59,-769.06l0 0c235.94,-254.9 491.75,-499.48 775.53,-704.34l0 0c239.99,-240.21 523.76,-445.09 811.6,-635.25l0 0c141.9,-102.44 283.78,-204.88 409.87,-302.95l0 0c145.94,-87.74 307.7,-179.84 453.65,-267.59l0 0z"/>
    </clipPath>
 </defs>
 <g id="Слой_x0020_1">
  <metadata id="CorelCorpID_0Corel-Layer"/>
  <polygon class="fil0" points="-0.01,63500 112888.88,63500 112888.88,0 -0.01,0 "/>
  <polygon class="fil1" points="83582.36,19681.26 78956.31,27693.86 83582.36,35706.37 100391.28,37228.47 104690.25,29883.52 92834.44,19681.26 "/>
  <polygon class="fil1 str0" points="90246.24,38510.02 76366.44,52060.92 65050.54,36305.68 90373.13,10910.79 "/>
  <g id="_2166875361872">
  </g>
  <g>
  </g>
  <g style="clip-path:url(#id0)">
   <g>
   </g>
   <g style="clip-path:url(#id2)">
   </g>
  </g>
  <path class="fil1" d="M69449.32 37171.07c287.85,-190.17 579.74,-365.65 899.63,-501.44l0 0c295.95,-160.78 595.96,-306.88 923.96,-413.28l0 0c284.2,-141.73 576.51,-254.09 876.95,-337.05l0 0c31.62,-8.74 63.24,-17.47 79.06,-21.83l0 0c181.62,-81.79 367.31,-148.89 541.25,-196.93l0 0c158.12,-43.66 304.48,-68.26 450.85,-92.88l0 0c63.25,-17.46 122.43,-49.62 185.68,-67.08l0 0c268.81,-74.24 545.74,-119.09 810.9,-144.88l0 0c336.12,-77.01 680.33,-124.65 1016.86,-138.53l0 0c344.23,-47.62 676.7,-76.18 1021.35,-60.68l0 0c352.33,-18.25 692.92,-17.43 1029.86,31.83l0 0c340.59,0.81 689.29,31 1030.3,94.95l0 0c348.69,30.2 689.7,94.14 1018.94,177.16l0 0c356.81,59.57 701.87,138.21 1027.48,269.65l0 0c345.07,78.65 682.43,191.03 996.28,341.54l0 0c353.17,108.03 682.84,254.17 988.99,438.42l0 0c285.88,110.79 564.05,255.34 826.4,404.25l0 0c99.35,51.63 218.57,113.58 317.91,165.2l0 0c95.29,36.93 190.58,73.87 285.87,110.79l0 0c95.29,36.94 186.52,59.17 281.81,96.11l0 0c107.05,17.88 198.28,40.12 289.51,62.35l0 0c107.05,17.88 194.23,25.43 301.27,43.3l0 0c102.98,3.19 190.16,10.74 297.2,28.61l0 0c98.94,-11.51 201.92,-8.33 289.09,-0.77l0 0c98.94,-11.52 197.87,-23.03 296.79,-34.54l0 0c98.94,-11.5 197.86,-23.01 296.79,-34.52l0 0c94.88,-26.21 189.75,-52.4 268.81,-74.23l0 0c94.88,-26.21 189.74,-52.41 284.62,-78.62l0 0c90.81,-40.88 181.62,-81.78 272.44,-122.66l0 0c90.81,-40.89 181.64,-81.79 272.45,-122.68l0 0c70.94,-51.22 157.71,-106.8 248.52,-147.69l0 0c82.7,-70.28 153.65,-121.5 240.4,-177.09l0 0c66.89,-65.89 153.64,-121.48 236.35,-191.75l0 0c66.89,-65.92 133.77,-131.82 216.48,-202.1l0 0c62.82,-80.6 129.72,-146.5 192.54,-227.1l0 0c62.84,-80.61 125.67,-161.2 188.49,-241.8l0 0c58.79,-95.29 129.31,-209.65 188.09,-304.94l0 0c148.75,-262.45 297.5,-524.89 485.99,-766.69l0 0c184.03,-319.63 391.98,-614.24 623.85,-883.82l0 0c207.94,-294.61 439.82,-564.21 695.62,-808.78l0 0c212,-279.92 467.8,-524.5 743.46,-758.75l0 0c239.99,-240.21 499.85,-470.1 783.63,-674.96l0 0c259.85,-229.88 527.83,-430.38 835.54,-610.24l0 0c263.92,-215.18 555.81,-390.67 867.58,-555.82l0 0c287.84,-190.19 587.85,-336.29 907.73,-472.06l0 0c295.96,-160.8 615.83,-296.58 943.84,-402.96l0 0c240.81,-113.95 485.7,-213.2 754.5,-287.44l0 0c79.06,-21.83 146.36,-24.61 209.62,-42.07l0 0c138.25,-53.99 276.5,-107.99 418.81,-147.28l0 0c189.74,-52.41 383.55,-90.11 565.59,-108.76l0 0c31.63,-8.74 63.25,-17.48 94.88,-26.21l0 0c300.42,-82.97 608.97,-136.55 909.81,-156.39l0 0c351.93,-81.38 684.41,-109.94 1020.92,-123.82l0 0c344.24,-47.62 684.82,-46.81 1029.46,-31.3l0 0c336.53,-13.88 681.18,1.62 1018.12,50.87l0 0c360.45,11.15 693.34,45.7 1038.4,124.34l0 0c348.7,30.2 693.76,108.84 1027.07,206.54l0 0c340.99,63.95 690.11,157.28 1015.72,288.72l0 0c349.12,93.33 674.73,224.77 992.64,389.98l0 0c353.18,108.02 682.84,254.16 993.06,453.1l0 0c1294.73,559.54 2351.56,1674.95 2761.35,3158.8l0 0c710.02,2571.02 -801.04,5233.63 -3378.41,5945.41l0 0c-1344.02,371.17 -2699.91,144.76 -3805.32,-530.3l0 0c-95.29,-36.94 -194.64,-88.56 -289.94,-125.49l0 0c-95.28,-36.93 -190.57,-73.87 -285.86,-110.8l0 0c-91.24,-22.24 -186.52,-59.17 -277.76,-81.41l0 0c-107.04,-17.88 -198.27,-40.13 -289.5,-62.36l0 0c-107.04,-17.88 -210.03,-21.06 -301.27,-43.3l0 0c-102.99,-3.18 -205.97,-6.36 -293.14,-13.92l0 0c-98.94,11.52 -201.92,8.34 -300.85,19.84l0 0c-98.93,11.51 -197.87,23.02 -296.79,34.53l0 0c-98.93,11.51 -193.81,37.72 -276.92,44.86l0 0c-31.62,8.72 -63.25,17.46 -94.87,26.19l0 0c-63.25,17.47 -126.5,34.93 -189.75,52.4l0 0c-94.88,26.2 -185.69,67.1 -280.55,93.3l0 0c-90.83,40.89 -181.64,81.78 -276.51,107.98l0 0c-70.95,51.21 -161.76,92.11 -248.52,147.69l0 0c-86.76,55.59 -177.58,96.48 -248.52,147.69l0 0c-82.7,70.28 -169.46,125.86 -240.41,177.08l0 0c-82.7,70.27 -149.58,136.18 -236.33,191.77l0 0c-62.85,80.6 -129.73,146.5 -212.43,216.78l0 0c-62.84,80.61 -125.66,161.21 -192.55,227.1l0 0c-58.78,95.31 -105.8,171.54 -168.62,252.14l0 0c-78.23,148.09 -176.33,285.87 -258.61,419.28l0 0c-168.21,315.25 -360.35,605.5 -576.41,870.72l0 0c-184.01,319.62 -396.01,599.54 -647.76,858.82l0 0c-207.94,294.6 -439.82,564.19 -699.68,794.08l0 0c-231.87,269.58 -487.66,514.16 -751.57,729.35l0 0c-255.8,244.57 -519.72,459.77 -807.56,649.94l0 0c-259.86,229.89 -543.64,434.75 -855.41,599.92l0 0c-267.97,200.5 -559.88,375.98 -875.69,526.45l0 0c-291.9,175.48 -591.91,321.58 -915.85,442.67l0 0c-295.96,160.8 -615.84,296.57 -947.89,388.27l0 0c-213.26,90.51 -430.57,166.34 -667.75,231.85l0 0c-94.87,26.2 -205.56,56.76 -320.3,72.65l0 0c-90.81,40.88 -201.51,71.45 -312.18,102.02l0 0c-221.38,61.13 -446.8,107.57 -676.28,139.33l0 0c-332.05,91.7 -676.28,139.33 -1012.81,153.21l0 0c-340.17,62.31 -672.64,90.89 -1013.23,90.06l0 0c-348.28,32.94 -688.86,32.13 -1021.75,-2.44l0 0c-352.34,18.25 -701.05,-11.95 -1042.04,-75.89l0 0c-344.65,-15.51 -697.4,-60.4 -1026.66,-143.41l0 0c-352.75,-44.89 -697.81,-123.53 -1019.36,-240.28l0 0c-341,-63.94 -694.18,-171.97 -1008.03,-322.48l0 0c-349.12,-93.33 -690.53,-220.4 -996.69,-404.66l0 0c-337.37,-112.39 -651.22,-262.89 -941.56,-451.52l0 0c-139.09,-72.27 -293.98,-140.17 -437.12,-227.14l0 0c-95.29,-36.93 -190.58,-73.87 -274.12,-129.86l0 0c-91.24,-22.24 -202.33,-54.8 -297.62,-91.74l0 0c-91.24,-22.24 -182.47,-44.47 -277.76,-81.41l0 0c-102.99,-3.18 -194.22,-25.42 -301.26,-43.29l0 0c-102.99,-3.18 -190.16,-10.74 -297.2,-28.61l0 0c-102.99,-3.18 -186.12,3.96 -289.1,0.78l0 0c-102.98,-3.19 -201.91,8.33 -304.91,5.14l0 0c-94.86,26.2 -193.8,37.71 -276.91,44.85l0 0c-94.88,26.21 -193.81,37.72 -288.68,63.91l0 0c-63.25,17.47 -126.5,34.94 -205.56,56.77l0 0c-15.8,4.37 -47.44,13.1 -79.06,21.83l0 0c-90.82,40.9 -185.68,67.1 -276.5,107.99l0 0c-75,36.52 -165.81,77.42 -256.64,118.31l0 0c-90.81,40.89 -177.57,96.47 -268.38,137.37l0 0c-70.95,51.22 -157.71,106.79 -244.46,162.38l0 0c-66.9,65.91 -153.65,121.5 -236.35,191.76l0 0c-66.89,65.92 -133.78,131.83 -216.47,202.1l0 0c-66.9,65.91 -129.73,146.5 -212.43,216.78l0 0c-47.01,76.24 -109.85,156.84 -188.49,241.8l0 0c-47.02,76.24 -105.8,171.53 -168.63,252.13l0 0c-602.3,1146.67 -1649.83,2036.83 -2993.87,2408l0 0c-2577.37,711.78 -5240.69,-798 -5950.72,-3369.01l0 0c-409.8,-1483.86 -90.97,-2979.17 748.92,-4128.22l0 0c164.16,-329.95 372.1,-624.56 603.98,-894.16l0 0c188.07,-304.92 415.89,-589.21 667.63,-848.48l0 0c212,-279.92 463.75,-539.18 723.59,-769.06l0 0c235.94,-254.9 491.75,-499.48 775.53,-704.34l0 0c239.99,-240.21 523.76,-445.09 811.6,-635.25l0 0c141.9,-102.44 283.78,-204.88 409.87,-302.95l0 0c145.94,-87.74 307.7,-179.84 453.65,-267.59l0 0z"/>
  <g>
  </g>
  <line class="fil1 str0" x1="65050.57" y1="36305.68" x2="81285.69" y2= "37726.06" />
  <polygon class="fil1 str1" points="90373.13,10910.8 73208.07,37019.38 76366.45,52060.88 "/>
  <line class="fil1" x1="83582.36" y1="35706.37" x2="100391.28" y2= "37228.43" />
  <line class="fil1" x1="78956.29" y1="27693.83" x2="83582.33" y2= "35706.38" />
 </g>
</svg>
